{
"type": "FeatureCollection",
"features": [
{ "type": "Feature", "properties": { "image": "FPWW0240037", "plot_label": "FPWW0240037_1", "type": "soil", "azimuth_angle": 0, "zenith_angle": 3.1415926535897931 }, "geometry": { "type": "Polygon", "coordinates": [ [ [ 1186.6458125, 1575.72918750000008 ], [ 1179.35418750000008, 1782.2708125 ], [ 1261.970837500000016, 1785.187462500000038 ], [ 1269.262462500000083, 1578.645837499999971 ], [ 1186.6458125, 1575.72918750000008 ] ] ] } },
{ "type": "Feature", "properties": { "image": "FPWW0240037", "plot_label": "FPWW0240037_2", "type": "soil", "azimuth_angle": 0, "zenith_angle": 3.1415926535897931 }, "geometry": { "type": "Polygon", "coordinates": [ [ [ 1269.262462500000083, 1578.645837499999971 ], [ 1261.970837500000016, 1785.187462500000038 ], [ 1344.587487499999952, 1788.104112499999928 ], [ 1351.879112500000019, 1581.562487500000088 ], [ 1269.262462500000083, 1578.645837499999971 ] ] ] } },
{ "type": "Feature", "properties": { "image": "FPWW0240037", "plot_label": "FPWW0240037_3", "type": "soil", "azimuth_angle": 0, "zenith_angle": 3.1415926535897931 }, "geometry": { "type": "Polygon", "coordinates": [ [ [ 1351.879112500000019, 1581.562487500000088 ], [ 1344.587487499999952, 1788.104112499999928 ], [ 1427.204137500000115, 1791.020762500000046 ], [ 1434.495762499999955, 1584.479137499999979 ], [ 1351.879112500000019, 1581.562487500000088 ] ] ] } },
{ "type": "Feature", "properties": { "image": "FPWW0240037", "plot_label": "FPWW0240037_4", "type": "soil", "azimuth_angle": 0, "zenith_angle": 3.1415926535897931 }, "geometry": { "type": "Polygon", "coordinates": [ [ [ 1434.495762499999955, 1584.479137499999979 ], [ 1427.204137500000115, 1791.020762500000046 ], [ 1509.820787500000051, 1793.937412499999937 ], [ 1517.112412500000119, 1587.395787500000097 ], [ 1434.495762499999955, 1584.479137499999979 ] ] ] } },
{ "type": "Feature", "properties": { "image": "FPWW0240037", "plot_label": "FPWW0240037_5", "type": "soil", "azimuth_angle": 0, "zenith_angle": 3.1415926535897931 }, "geometry": { "type": "Polygon", "coordinates": [ [ [ 1517.112412500000119, 1587.395787500000097 ], [ 1509.820787500000051, 1793.937412499999937 ], [ 1592.437437499999987, 1796.854062500000055 ], [ 1599.729062500000055, 1590.312437499999987 ], [ 1517.112412500000119, 1587.395787500000097 ] ] ] } },
{ "type": "Feature", "properties": { "image": "FPWW0240037", "plot_label": "FPWW0240037_6", "type": "soil", "azimuth_angle": 0, "zenith_angle": 3.1415926535897931 }, "geometry": { "type": "Polygon", "coordinates": [ [ [ 1599.729062500000055, 1590.312437499999987 ], [ 1592.437437499999987, 1796.854062500000055 ], [ 1675.054087499999923, 1799.770712499999945 ], [ 1682.3457125, 1593.229087499999878 ], [ 1599.729062500000055, 1590.312437499999987 ] ] ] } },
{ "type": "Feature", "properties": { "image": "FPWW0240037", "plot_label": "FPWW0240037_7", "type": "soil", "azimuth_angle": 0, "zenith_angle": 3.1415926535897931 }, "geometry": { "type": "Polygon", "coordinates": [ [ [ 1682.3457125, 1593.229087499999878 ], [ 1675.054087499999923, 1799.770712499999945 ], [ 1757.670737500000087, 1802.687362499999836 ], [ 1764.962362499999927, 1596.1457375 ], [ 1682.3457125, 1593.229087499999878 ] ] ] } },
{ "type": "Feature", "properties": { "image": "FPWW0240037", "plot_label": "FPWW0240037_8", "type": "soil", "azimuth_angle": 0, "zenith_angle": 3.1415926535897931 }, "geometry": { "type": "Polygon", "coordinates": [ [ [ 1764.962362499999927, 1596.1457375 ], [ 1757.670737500000087, 1802.687362499999836 ], [ 1840.287387500000023, 1805.604012499999953 ], [ 1847.57901250000009, 1599.062387499999886 ], [ 1764.962362499999927, 1596.1457375 ] ] ] } },
{ "type": "Feature", "properties": { "image": "FPWW0240037", "plot_label": "FPWW0240037_9", "type": "soil", "azimuth_angle": 0, "zenith_angle": 3.1415926535897931 }, "geometry": { "type": "Polygon", "coordinates": [ [ [ 1847.57901250000009, 1599.062387499999886 ], [ 1840.287387500000023, 1805.604012499999953 ], [ 1922.904037499999959, 1808.520662499999844 ], [ 1930.195662500000026, 1601.9790375 ], [ 1847.57901250000009, 1599.062387499999886 ] ] ] } },
{ "type": "Feature", "properties": { "image": "FPWW0240037", "plot_label": "FPWW0240037_10", "type": "soil", "azimuth_angle": 0, "zenith_angle": 3.1415926535897931 }, "geometry": { "type": "Polygon", "coordinates": [ [ [ 1930.195662500000026, 1601.9790375 ], [ 1922.904037499999959, 1808.520662499999844 ], [ 2005.520687499999894, 1811.437312499999962 ], [ 2012.812312499999962, 1604.895687499999894 ], [ 1930.195662500000026, 1601.9790375 ] ] ] } },
{ "type": "Feature", "properties": { "image": "FPWW0240037", "plot_label": "FPWW0240037_11", "type": "soil", "azimuth_angle": 0, "zenith_angle": 3.1415926535897931 }, "geometry": { "type": "Polygon", "coordinates": [ [ [ 2012.812312499999962, 1604.895687499999894 ], [ 2005.520687499999894, 1811.437312499999962 ], [ 2088.137337500000285, 1814.353962499999852 ], [ 2095.428962500000125, 1607.812337500000012 ], [ 2012.812312499999962, 1604.895687499999894 ] ] ] } },
{ "type": "Feature", "properties": { "image": "FPWW0240037", "plot_label": "FPWW0240037_12", "type": "soil", "azimuth_angle": 0, "zenith_angle": 3.1415926535897931 }, "geometry": { "type": "Polygon", "coordinates": [ [ [ 2095.428962500000125, 1607.812337500000012 ], [ 2088.137337500000285, 1814.353962499999852 ], [ 2170.753987500000221, 1817.2706125 ], [ 2178.045612500000061, 1610.728987499999903 ], [ 2095.428962500000125, 1607.812337500000012 ] ] ] } },
{ "type": "Feature", "properties": { "image": "FPWW0240037", "plot_label": "FPWW0240037_13", "type": "soil", "azimuth_angle": 0, "zenith_angle": 3.1415926535897931 }, "geometry": { "type": "Polygon", "coordinates": [ [ [ 2178.045612500000061, 1610.728987499999903 ], [ 2170.753987500000221, 1817.2706125 ], [ 2253.370637500000157, 1820.187262499999861 ], [ 2260.6622625, 1613.645637500000021 ], [ 2178.045612500000061, 1610.728987499999903 ] ] ] } },
{ "type": "Feature", "properties": { "image": "FPWW0240037", "plot_label": "FPWW0240037_14", "type": "soil", "azimuth_angle": 0, "zenith_angle": 3.1415926535897931 }, "geometry": { "type": "Polygon", "coordinates": [ [ [ 2260.6622625, 1613.645637500000021 ], [ 2253.370637500000157, 1820.187262499999861 ], [ 2335.987287500000093, 1823.103912499999979 ], [ 2343.278912499999933, 1616.562287499999911 ], [ 2260.6622625, 1613.645637500000021 ] ] ] } },
{ "type": "Feature", "properties": { "image": "FPWW0240037", "plot_label": "FPWW0240037_15", "type": "soil", "azimuth_angle": 0, "zenith_angle": 3.1415926535897931 }, "geometry": { "type": "Polygon", "coordinates": [ [ [ 2343.278912499999933, 1616.562287499999911 ], [ 2335.987287500000093, 1823.103912499999979 ], [ 2418.603937500000029, 1826.020562499999869 ], [ 2425.895562499999869, 1619.478937499999802 ], [ 2343.278912499999933, 1616.562287499999911 ] ] ] } },
{ "type": "Feature", "properties": { "image": "FPWW0240037", "plot_label": "FPWW0240037_16", "type": "soil", "azimuth_angle": 0, "zenith_angle": 3.1415926535897931 }, "geometry": { "type": "Polygon", "coordinates": [ [ [ 2425.895562499999869, 1619.478937499999802 ], [ 2418.603937500000029, 1826.020562499999869 ], [ 2501.220587499999965, 1828.937212499999987 ], [ 2508.512212499999805, 1622.3955875 ], [ 2425.895562499999869, 1619.478937499999802 ] ] ] } },
{ "type": "Feature", "properties": { "image": "FPWW0240037", "plot_label": "FPWW0240037_17", "type": "soil", "azimuth_angle": 0, "zenith_angle": 3.1415926535897931 }, "geometry": { "type": "Polygon", "coordinates": [ [ [ 2508.512212499999805, 1622.3955875 ], [ 2501.220587499999965, 1828.937212499999987 ], [ 2583.837237499999901, 1831.853862499999877 ], [ 2591.128862499999741, 1625.31223749999981 ], [ 2508.512212499999805, 1622.3955875 ] ] ] } },
{ "type": "Feature", "properties": { "image": "FPWW0240037", "plot_label": "FPWW0240037_18", "type": "soil", "azimuth_angle": 0, "zenith_angle": 3.1415926535897931 }, "geometry": { "type": "Polygon", "coordinates": [ [ [ 2591.128862499999741, 1625.31223749999981 ], [ 2583.837237499999901, 1831.853862499999877 ], [ 2666.453887500000292, 1834.770512499999768 ], [ 2673.745512500000132, 1628.228887499999928 ], [ 2591.128862499999741, 1625.31223749999981 ] ] ] } },
{ "type": "Feature", "properties": { "image": "FPWW0240037", "plot_label": "FPWW0240037_19", "type": "soil", "azimuth_angle": 0, "zenith_angle": 3.1415926535897931 }, "geometry": { "type": "Polygon", "coordinates": [ [ [ 2673.745512500000132, 1628.228887499999928 ], [ 2666.453887500000292, 1834.770512499999768 ], [ 2749.070537499999773, 1837.687162499999886 ], [ 2756.362162499999613, 1631.145537499999818 ], [ 2673.745512500000132, 1628.228887499999928 ] ] ] } },
{ "type": "Feature", "properties": { "image": "FPWW0240037", "plot_label": "FPWW0240037_20", "type": "soil", "azimuth_angle": 0, "zenith_angle": 3.1415926535897931 }, "geometry": { "type": "Polygon", "coordinates": [ [ [ 2756.362162499999613, 1631.145537499999818 ], [ 2749.070537499999773, 1837.687162499999886 ], [ 2831.687187499999709, 1840.603812499999776 ], [ 2838.978812499999549, 1634.062187499999936 ], [ 2756.362162499999613, 1631.145537499999818 ] ] ] } },
{ "type": "Feature", "properties": { "image": "FPWW0240037", "plot_label": "FPWW0240037", "type": "soil", "azimuth_angle": 0, "zenith_angle": 3.1415926535897931 }, "geometry": { "type": "Polygon", "coordinates": [ [ [ 1186.6458125, 1575.72918750000008 ], [ 1179.35418750000008, 1782.2708125 ], [ 2838.978812499999549, 1840.603812499999776 ], [ 2838.978812499999549, 1634.062187499999936 ], [ 1186.6458125, 1575.72918750000008 ] ] ] } }
]
}
